bib2df - Parse a BibTeX file to a data.frame • rOpenSci: bib2df
…
Parse the BibTeX file

To parse a BibTeX file to a tibble you may want to use the function bib2df(). The first argument of bib2df() is the path to the file you want to parse.

install.packages("bib2df")

library(bib2df)

path <- system.file("extdata", "LiteratureOnCommonKnowledgeInGameTheory.bib", package = "bib2df")

df <- bib2df(path)
df

## # A tibble: 37 x 27
##    CATEGORY  BIBTEXKEY ADDRESS ANNOTE AUTHOR BOOKTITLE  CHAPTER CROSSREF EDITION
##    <chr>     <chr>     <chr>   <chr>  <list> <chr>      <chr>   <chr>    <chr>  
##  1 ARTICLE   Arrow1986 <NA>    <NA>   <chr … <NA>       <NA>    <NA>     <NA>   
##  2 ARTICLE   AumannBr… <NA>    <NA>   <chr … <NA>       <NA>    <NA>     <NA>   
##  3 ARTICLE   Aumann19… <NA>    <NA>   <chr … <NA>       <NA>    <NA>     <NA>   
##  4 INCOLLEC… Bacharac… Cambri… <NA>   <chr … Knowledge… 17      <NA>     <NA>   
##  5 ARTICLE   Basu1988  <NA>    <NA>   <chr … <NA>       <NA>    <NA>     <NA>   
##  6 ARTICLE   Bernheim… <NA>    <NA>   <chr … <NA>       <NA>    <NA>     <NA>   
##  7 ARTICLE   Bicchier… <NA>    <NA>   <chr … <NA>       <NA>    <NA>     <NA>   
##  8 ARTICLE   Binmore2… <NA>    <NA>   <chr … <NA>       <NA>    <NA>     <NA>   
##  9 ARTICLE   Brandenb… <NA>    <NA>   <chr … <NA>       <NA>    <NA>     <NA>   
## 10 INCOLLEC… Brandenb… New Yo… <NA>   <chr … The Econo… 3       <NA>     <NA>   
## # … with 27 more rows, and 18 more variables: EDITOR <list>,
## #   HOWPUBLISHED <chr>, INSTITUTION <chr>, JOURNAL <chr>, KEY <chr>,
## #   MONTH <chr>, NOTE <chr>, NUMBER <chr>, ORGANIZATION <chr>, PAGES <chr>,
## #   PUBLISHER <chr>, SCHOOL <chr>, SERIES <chr>, TITLE <chr>, TYPE <chr>,
## #   VOLUME <chr>, YEAR <dbl>, DOI <chr>
…
Multiple BibTeX files can be parsed using lapply(). The paths to the BibTeX files must be stored in a vector. Using this vector to call bib2df() within lapply() results in a list of tibble, which can be bound, e.g. using bind_rows():

bib1 <- system.file("extdata", "LiteratureOnCommonKnowledgeInGameTheory.bib", package = "bib2df")
bib2 <- system.file("extdata", "r.bib", package = "bib2df")
paths <- c(bib1, bib2)

x <- lapply(paths, bib2df)
class(x)

## [1] "list"

head(x)

## [[1]]
## # A tibble: 37 x 27
##    CATEGORY  BIBTEXKEY ADDRESS ANNOTE AUTHOR BOOKTITLE  CHAPTER CROSSREF EDITION
##    <chr>     <chr>     <chr>   <chr>  <list> <chr>      <chr>   <chr>    <chr>  
##  1 ARTICLE   Arrow1986 <NA>    <NA>   <chr … <NA>       <NA>    <NA>     <NA>   
##  2 ARTICLE   AumannBr… <NA>    <NA>   <chr … <NA>       <NA>    <NA>     <NA>   
##  3 ARTICLE   Aumann19… <NA>    <NA>   <chr … <NA>       <NA>    <NA>     <NA>   
##  4 INCOLLEC… Bacharac… Cambri… <NA>   <chr … Knowledge… 17      <NA>     <NA>   
##  5 ARTICLE   Basu1988  <NA>    <NA>   <chr … <NA>       <NA>    <NA>     <NA>   
##  6 ARTICLE   Bernheim… <NA>    <NA>   <chr … <NA>       <NA>    <NA>     <NA>   
##  7 ARTICLE   Bicchier… <NA>    <NA>   <chr … <NA>       <NA>    <NA>     <NA>   
##  8 ARTICLE   Binmore2… <NA>    <NA>   <chr … <NA>       <NA>    <NA>     <NA>   
##  9 ARTICLE   Brandenb… <NA>    <NA>   <chr … <NA>       <NA>    <NA>     <NA>   
## 10 INCOLLEC… Brandenb… New Yo… <NA>   <chr … The Econo… 3       <NA>     <NA>   
## # … with 27 more rows, and 18 more variables: EDITOR <list>,
## #   HOWPUBLISHED <chr>, INSTITUTION <chr>, JOURNAL <chr>, KEY <chr>,
## #   MONTH <chr>, NOTE <chr>, NUMBER <chr>, ORGANIZATION <chr>, PAGES <chr>,
## #   PUBLISHER <chr>, SCHOOL <chr>, SERIES <chr>, TITLE <chr>, TYPE <chr>,
## #   VOLUME <chr>, YEAR <dbl>, DOI <chr>
## 
## [[2]]
…
